HW3 - Data wrangling and simple modeling with R
…
Problem 2 - Flights into and out of DTW

Use dplyr for all of the questions in this problem.

Find the number of flights into DTW by origin airport. Display the results in descending order by number of flights.

flights %>%
  filter(DEST == "DTW") %>%
  group_by(ORIGIN) %>%
  summarize(num_flights = n()) %>%
  arrange(desc(num_flights))

## # A tibble: 102 x 2
##    ORIGIN num_flights
##    <fct>        <int>
##  1 ATL            457
##  2 ORD            411
##  3 LGA            284
##  4 BOS            283
##  5 MCO            276
##  6 LAS            267
##  7 FLL            262
##  8 TPA            262
##  9 RSW            261
## 10 BWI            255
## #  with 92 more rows
…
summarize(by_origin,
          num_flights = n(),
          mean_delay = mean(ARR_DELAY, na.rm = TRUE),
          median_delay = median(ARR_DELAY, na.rm = TRUE),
          min_delay = min(ARR_DELAY, na.rm = TRUE),
          max_delay = max(ARR_DELAY, na.rm = TRUE),
          percentile95_delay = quantile(ARR_DELAY, 0.95, na.rm = TRUE),
          percentile05_delay = quantile(ARR_DELAY, 0.05, na.rm = TRUE),
          standard_dev_delay = sd(ARR_DELAY, na.rm = TRUE),
          range_delay = max_delay - min_delay,
          IQR = IQR(ARR_DELAY, na.rm = TRUE),
          )

## # A tibble: 108 x 11
##    ORIGIN num_flights mean_delay median_delay min_delay max_delay
##    <fct>        <int>      <dbl>        <dbl>     <int>     <int>
##  1 ABE             73      20.1          -1         -30       421
##  2 ALB             61      32.9          -3         -35       605
##  3 APN             52      20.9           1         -32       276
##  4 ATL            672       5.49         -6         -25       805
##  5 ATW             63      44.6          -2         -34      1061
##  6 AUS             31      -9.84        -18         -31        78
##  7 AVP             45      49.9           2         -37       767
##  8 AZO            153       4.12         -9         -49       244
##  9 BDL            101      -6.38        -13         -42       152
## 10 BGM             58       6.35         -6.5       -33       223
## #  with 98 more rows, and 5 more variables: percentile95_delay <dbl>,
## #   percentile05_delay <dbl>, standard_dev_delay <dbl>, range_delay <int>,
## #   IQR <dbl>
…
          num_flights = n(),
          mean_delay = mean(ARR_DELAY, na.rm = TRUE),
          median_delay = median(ARR_DELAY, na.rm = TRUE),
          min_delay = min(ARR_DELAY, na.rm = TRUE),
          max_delay = max(ARR_DELAY, na.rm = TRUE),
          percentile95_delay = quantile(ARR_DELAY, 0.95, na.rm = TRUE),
          percentile05_delay = quantile(ARR_DELAY, 0.05, na.rm = TRUE),
          standard_dev_delay = sd(ARR_DELAY, na.rm = TRUE),
          range_delay = max_delay - min_delay,
          IQR = IQR(ARR_DELAY, na.rm = TRUE),
          )
# not sure this is the most elegant, but it worked...
filter(by_orig_sum, num_flights > 99)

## # A tibble: 39 x 11
##    ORIGIN num_flights mean_delay median_delay min_delay max_delay
##    <fct>        <int>      <dbl>        <dbl>     <int>     <int>
##  1 ATL            672      5.49          -6         -25       805
##  2 AZO            153      4.12          -9         -49       244
##  3 BDL            101     -6.38         -13         -42       152
##  4 BNA            195     -0.868         -9         -30       328
##  5 BOS            283     -3.11          -9         -41       225
##  6 BUF            111      4.43          -9.5       -38       273
##  7 BWI            290      0.450         -8         -34       380
##  8 CLT            198      4.45          -5         -32      1000
##  9 DCA            132     10.1           -8         -27      1070
## 10 DEN            307      7.20          -5         -49       276
## #  with 29 more rows, and 5 more variables: percentile95_delay <dbl>,
## #   percentile05_delay <dbl>, standard_dev_delay <dbl>, range_delay <int>,
## #   IQR <dbl>
…
## Compute difference between number of flights in and number out
inout$balance <- inout$Flights_In - inout$Flights_Out

## Replace NA values in the num_in, num_out, and balance fields with 0.

inout[is.na(inout)] <- 0

# looks like I needed to recalculate this AFTER removing NA's
inout$balance <- inout$Flights_In - inout$Flights_Out

## Display sorted descending by balance and num_out
inout %>%
  arrange(desc(balance, Flights_Out))

## # A tibble: 107 x 4
##    Airport Flights_In Flights_Out balance
##    <chr>        <int>       <dbl>   <dbl>
##  1 ORD           1222        1197      25
##  2 ATW             63          42      21
##  3 CMH             58          39      19
##  4 DSM             39          20      19
##  5 DFW            210         193      17
##  6 MKE            161         154       7
##  7 RDU             77          72       5
##  8 BOS            283         279       4
##  9 JFK             36          32       4
## 10 CLT            198         195       3
## #  with 97 more rows
…
